<svg xmlns="http://www.w3.org/2000/svg" height="24" width="24" viewBox="0 0 512 512">
  <g fill-rule="evenodd" stroke-width="1pt">
    <path fill="#0000b4" d="M0 0h511.993v511.984H0z"/>
    <path fill="#fff" d="M0 80.455h511.993v343.762H0z"/>
    <path fill="#d90000" d="M0 168.222h511.993v168.222H0z"/>
  </g>
</svg>
