<svg xmlns="http://www.w3.org/2000/svg" height="24" width="24" viewBox="0 0 512 512">
  <path fill="#ffce00" d="M0 341.338h512.005v170.67H0z"/>
  <path d="M0 0h512.005v170.67H0z"/>
  <path fill="#d00" d="M0 170.67h512.005v170.668H0z"/>
</svg>
