<svg xmlns="http://www.w3.org/2000/svg" height="24" width="24" viewBox="0 0 512 512">
  <path d="M0 0h512v512H0z" fill="#fff"/>
  <path d="M204.999 0h102v512h-102z" fill="#f00"/>
  <path d="M0 204.999h512v102H0z" fill="#f00"/>
  <path style="mix-blend-mode:multiply" d="M114.12 397.877c1.098-18.024 4.254-33.378 4.254-33.378s-10.545 1.08-15.873 1.08c-5.253 0-15.873-1.08-15.873-1.08s3.153 15.354 4.25 33.378c-18.023-1.095-33.377-4.25-33.377-4.25s1.08 7.934 1.08 15.872-1.08 15.873-1.08 15.873 15.354-3.156 33.378-4.25c-1.098 18.023-4.251 33.377-4.251 33.377s7.935-1.08 15.87-1.08c7.938 0 15.876 1.08 15.876 1.08s-3.156-15.354-4.254-33.378c18.027 1.095 33.38 4.251 33.38 4.251s-1.08-10.545-1.08-15.873c0-5.253 1.08-15.873 1.08-15.873s-15.353 3.156-33.38 4.251zM421.12 90.88c1.095-18.024 4.251-33.378 4.251-33.378s-10.545 1.08-15.873 1.08c-5.253 0-15.873-1.08-15.873-1.08s3.156 15.354 4.251 33.378c-18.024-1.098-33.378-4.251-33.378-4.251s1.08 7.935 1.08 15.87c0 7.938-1.08 15.876-1.08 15.876s15.354-3.156 33.378-4.254c-1.095 18.027-4.25 33.38-4.25 33.38s7.934-1.08 15.872-1.08 15.873 1.08 15.873 1.08-3.156-15.353-4.25-33.38c18.023 1.098 33.377 4.254 33.377 4.254s-1.08-10.545-1.08-15.873c0-5.253 1.08-15.873 1.08-15.873s-15.354 3.153-33.378 4.25zm-307.001 0c1.098-18.024 4.254-33.378 4.254-33.378s-10.545 1.08-15.873 1.08c-5.253 0-15.873-1.08-15.873-1.08s3.153 15.354 4.25 33.378c-18.023-1.098-33.377-4.251-33.377-4.251s1.08 7.935 1.08 15.87c0 7.938-1.08 15.876-1.08 15.876s15.354-3.156 33.378-4.254c-1.098 18.027-4.251 33.38-4.251 33.38s7.935-1.08 15.87-1.08c7.938 0 15.876 1.08 15.876 1.08s-3.156-15.353-4.254-33.38c18.027 1.098 33.38 4.254 33.38 4.254s-1.08-10.545-1.08-15.873c0-5.253 1.08-15.873 1.08-15.873s-15.353 3.153-33.38 4.25zM421.12 397.877c1.095-18.024 4.251-33.378 4.251-33.378s-10.545 1.08-15.873 1.08c-5.253 0-15.873-1.08-15.873-1.08s3.156 15.354 4.251 33.378c-18.024-1.095-33.378-4.25-33.378-4.25s1.08 7.934 1.08 15.872-1.08 15.873-1.08 15.873 15.354-3.156 33.378-4.25c-1.095 18.023-4.25 33.377-4.25 33.377s7.934-1.08 15.872-1.08 15.873 1.08 15.873 1.08-3.156-15.354-4.25-33.378c18.023 1.095 33.377 4.251 33.377 4.251s-1.08-10.545-1.08-15.873c0-5.253 1.08-15.873 1.08-15.873s-15.354 3.156-33.378 4.251z" fill="#f00" fill-rule="evenodd"/>
</svg>
