<svg xmlns="http://www.w3.org/2000/svg" height="24" width="24" viewBox="0 0 512 512">
  <path fill="#e32118" d="M0 0h512v512H0z"/>
  <path fill="#fff" d="M0 0h512v341.333H0z"/>
  <path fill="#3e9a00" d="M0 0h512v170.667H0z"/>
  <path d="M0 0v512l160-256z" fill="#0073ce"/>
  <g stroke="#000">
    <path d="M215.001 204.544h81.707v85.59c0 28.8-37.547 6.613-40.747 21.973-5.547-15.787-40.747 7.04-40.747-23.68 0-29.867-.213-83.883-.213-83.883z" fill="#fff" stroke-width="1.023984"/>
    <path d="M261.721 298.453s-1.067 1.067-2.987.214c-1.92-.854-2.133-54.827-2.133-54.827 4.267-4.693 7.68-6.187 7.68-6.187l2.56 2.134c-9.6 4.906-8.747 11.946-7.893 24.106.213 4.48.213 10.24 1.28 15.787 1.493 7.04 4.48 13.013 4.693 17.493.213 2.774-3.2 1.28-3.2 1.28z" fill="#73452b" stroke-width=".21333"/>
    <path d="M255.108 236.373h3.84c-3.2 30.934-.427 49.28-.427 58.24 0 2.987 1.707 4.054 1.493 4.054-3.84 4.266-5.76-.214-5.76-.214z" fill="#73452b" stroke-width=".21333"/>
    <path d="M249.134 298.453c-3.626 1.707-4.053-1.706-3.84-2.133 7.894-16 11.307-51.2 4.054-55.04l.426-3.413c2.774.853 5.334 4.48 5.334 4.48 1.066 39.466 0 55.68-.64 56.32-3.84 4.053-5.334-.64-5.547-1.067" fill="#a36629" stroke-width=".21333"/>
    <path d="M248.921 297.813c-.64-3.413 5.547-12.16 5.12-21.333M259.374 283.947c1.92 5.333 2.774 10.026 2.347 14.506" fill="none" stroke-width=".21333"/>
    <path d="M267.694 221.867c1.28-1.494 1.28-1.494 3.627-1.494.427-3.2 5.76-3.2 6.187.854 4.266-.854 5.12 1.706 3.413 4.266 4.053-1.066 7.68 0 6.613 4.694 7.254 1.92 4.48 7.04 1.28 8.106-.426 3.2-3.413 4.267-7.466 2.987-5.12 3.627-8.107 2.347-10.454-1.28-5.76.853-6.186-.427-8.746-3.627-4.48 1.92-5.334 1.92-9.174-.426-.213 2.986-1.28 2.133-3.2 1.92.214 3.84-1.28 5.546-4.693 4.266 2.56 5.334-4.053 7.68-7.253 3.2-2.987.214-3.2-.64-4.694-1.706-1.28 4.266-5.973 3.626-6.826 1.28-5.974-.854-5.334-4.054-.427-4.267.427-3.413 3.413-2.773 5.333-2.347.214-2.133 1.494-1.706 2.56-1.28-.64-1.493-.213-2.346 1.707-2.773-2.773-3.627-1.067-4.907 1.707-6.187-1.494-3.413 1.066-3.2 2.986-3.413-.213-3.627.854-4.267 4.694-4.693-.427-1.28.213-2.347 2.346-2.347-1.28-3.627.427-4.459 4.267-3.84.64-5.27 11.947-2.773 11.093 4.48 3.2.427 4.267 1.067 5.12 3.627z" fill="#009a3b" stroke-width=".21333"/>
    <g fill="none">
      <path d="M244.868 219.947c.853.426 1.92 0 2.133 2.346 1.707-2.986 3.84-1.28 3.84 2.134M262.574 218.24c-.853 1.28-4.053 1.28-3.626 4.693-1.067-1.493-3.2-1.92-4.054-.426M267.694 221.867c0 .853-.213 3.413-1.066 4.693M280.921 225.493c.213.214-2.987 0-4.48 1.067M288.814 238.293c-.853-.426-2.56-1.493-3.84.214 0-.854 0-3.2-2.346-3.2M281.348 241.28c0-2.133-.427-2.773-.854-3.413M274.308 238.293c-1.707-1.28-3.414.64-3.414 1.707M261.934 236.373c0-.853-.64-2.56.854-3.2M237.614 245.333c.427-2.133 1.92-2.133 1.707-3.2-.213-1.706-2.133-3.2-4.48-.853M239.321 242.133c1.28-.426 2.56-.213 2.987.427M235.694 234.24c.854-.853 2.987-.64 4.267 0M239.961 229.12c1.067 0 2.987-.427 3.627 1.493 2.346-3.626 4.053-3.2 4.48-2.346M252.334 227.84c1.707-.64 4.694 1.067 6.4 4.053.854-2.346 2.134-1.92 3.414-2.133M270.254 231.893c2.774-1.28 4.48 1.28 5.334 2.347 1.28-1.707 2.346-1.707 3.626-1.707M244.441 237.013c.64-1.066 2.133-1.28 3.2-.64-.213-1.92 1.067-2.773 1.92-2.346" stroke-width=".21333"/>
    </g>
    <g fill="gold" stroke-width="3.5">
      <path d="M253.188 192.555l-4.694.213-2.346 4.203-2.56-4.011-4.694.192 2.134-4.224-2.56-4.01 4.906-.214 2.134-4.203 2.56 4.011 4.693-.192-2.133 4.224zM233.134 194.112l-4.693 1.152-1.28 4.544-3.413-3.413-4.48 1.109 1.28-4.544-3.2-3.456 4.48-1.13 1.28-4.566 3.413 3.413 4.693-1.109-1.493 4.565zM213.721 198.101l-4.267 2.112-.213 4.736-4.053-2.602-4.267 2.09.427-4.736-4.054-2.624 4.267-2.133.427-4.736 3.84 2.603 4.266-2.091-.213 4.736zM259.374 192.555l4.694.213 2.133 4.203 2.56-4.011 4.693.192-2.133-4.224 2.56-4.01-4.693-.214-2.347-4.203-2.56 4.011-4.693-.192 2.133 4.224zM279.428 194.112l4.48 1.152 1.28 4.544 3.413-3.413 4.48 1.109-1.28-4.544 3.413-3.456-4.693-1.13-1.28-4.566-3.413 3.413-4.48-1.109 1.28 4.565zM298.628 198.101l4.266 2.112.214 4.736 4.053-2.602 4.267 2.09-.214-4.736 3.84-2.624-4.266-2.133-.214-4.736-4.053 2.603-4.267-2.091.427 4.736z" stroke-width=".746655"/>
    </g>
    <g>
      <g fill="#fff" stroke-width="3.5">
        <path d="M304.388 288.427l5.333 7.68 4.907-7.254-3.414-6.186zM270.468 310.827l.426 7.68s2.134 0 4.054-.64c1.706-.64 3.2-1.92 3.2-1.92l-.214-4.054zM241.881 310.827l-.427 7.466s-1.92 0-3.84-.426c-1.706-.427-3.2-1.494-3.2-1.494l-2.133-5.12zM207.534 288.427l-5.546 7.68-5.974-9.814 4.48-4.693z" stroke-width=".746655"/>
        <path d="M234.201 326.187c0 7.253 43.947 7.253 43.947 0v-10.24c0 5.333-43.947 4.266-43.947 0z" stroke-width=".746655"/>
        <path d="M194.948 302.507c3.84 19.626 39.253 20.053 39.253 20.053v-6.613c-.853-2.56.64-3.414 6.4-4.267 2.347-.213 1.28-3.627 1.28-3.627s-15.36 2.774-26.24-1.493c-14.72-5.973-16.853-17.493-16.853-17.493s-1.067 8.96-3.84 13.44zM317.188 302.507c-3.627 19.626-39.04 20.053-39.04 20.053v-6.613c.64-2.56-.854-3.414-6.614-4.267-2.346-.213-1.066-3.627-1.066-3.627s15.36 2.774 26.24-1.493c14.506-5.973 16.213-17.493 16.213-17.493s1.493 8.96 4.267 13.44z" stroke-width=".746655"/>
        <path d="M197.721 295.04c-9.813-5.333-2.133-10.88-1.28-26.667 1.493 9.6 12.373 13.654 11.093 19.84-4.48.214-6.613-6.613-8.746.854l-1.067 5.973zM314.414 295.04c9.814-5.547 1.707-10.88.854-26.667-1.494 9.6-12.16 13.654-10.88 19.84 4.266.214 6.4-6.613 8.533.854l1.493 5.76z" stroke-width=".746655"/>
      </g>
      <g stroke="none">
        <path d="M203.694 302.293l1.067.854-2.347 2.56c-.939 1.024-1.166 1.702-.514 2.326.81.774 1.38.505 2.221-.406l2.56-2.774.853.854-2.557 2.984c-1.389 1.62-2.678 1.25-3.759.24-.942-.88-1.482-2.156-.097-3.724l2.582-2.901zM207.961 305.92l1.067.64-.214 5.12 2.347-3.627 1.067.64-3.414 5.547-1.28-.64.214-5.12-2.347 3.627-1.067-.64zM209.881 314.88l2.987-5.973 1.066.64-2.773 5.76zM214.574 309.76l-2.355 6.182 2.355.858c2.196.8 3.226-.166 3.924-2.022.704-1.888.396-3.277-1.799-4.16l-2.125-.858zm.845 1.498c2.208.768 2.343 1.606 1.741 3.123-.582 1.44-1.126 2.003-3.226.921l1.485-4.044zM221.614 312.107l-3.84 5.76 1.485.435.858-1.498 2.56.64.217 1.498 1.485.205-1.485-6.823-1.28-.217zm.423 1.497l.422 2.56-1.702-.217 1.28-2.343zM225.262 312.661l-.23 6.612 2.51.049c2.335.044 2.998-1.2 3.055-3.181.058-2.016-.684-3.233-3.05-3.353l-2.285-.127zm1.28 1.147c2.34.01 2.74.756 2.658 2.389-.078 1.551-.417 2.258-2.749 1.913l.092-4.302zM247.641 321.92v6.822h1.498v-2.56s1.28.077 2.342-.204c.838-.218 1.42-.756 1.44-2.08.02-1.3-.736-1.978-2.042-1.978h-3.242zm1.498 1.062l1.504.02c1.254 0 1.017 1.9.038 1.9h-1.542v-1.92zM255.321 321.92l-2.778 6.822h1.498l.64-1.702h2.778l.64 1.702h1.484l-2.773-6.826h-1.493zm.64 1.498l1.062 2.56h-1.92l.858-2.56zM259.588 327.467l3.626-4.48h-3.2v-1.067h5.12v1.067l-3.84 4.48h3.84v1.28h-5.546zM281.134 314.24l1.28-.213.64 3.84c.228 1.365-.396 2.296-1.368 2.655-1.107.408-2.519.035-2.685-1.802l1.067-.213c.248 1.099.69 1.194 1.202 1.022.406-.137.616-.777.504-1.449zM283.268 313.856l1.263-.24.584 3.196c.25 1.367.68 1.949 1.568 1.794 1.104-.193 1.225-.811.99-2.03l-.785-3.408 1.292-.195.858 3.546c.501 2.074-.582 2.896-2.037 3.168-1.267.237-2.614-.085-3.055-2.13zM289.881 316.8l1.067-.427c.523.94 1.34.892 1.974.611.882-.39.983-1.16.547-1.421-.622-.372-2.106.156-2.905-.136-.956-.348-1.366-.886-1.318-1.713.06-.995.935-1.543 1.887-1.838 1.066-.33 2.118-.214 2.801 1.084l-1.28.427c-.416-.701-.952-.668-1.428-.444-.398.189-1.02.542-.688 1.111.273.465 1.84.163 2.667.197.854.035 1.544.605 1.66 1.426.16 1.146-.264 1.766-1.588 2.282-1.635.638-3.11-.076-3.396-1.159zM295.641 311.467l-1.707.853-.426-1.067 4.693-1.92.427.854-1.707.853 1.92 4.693-1.067.64zM298.414 309.12l1.067-.64 2.987 5.547-1.067.64zM305.668 309.547l1.28-.427c.602 1.265-.302 3.566-2.512 3.519-3.235-.07-3.585-3.633-3.077-4.808.855-1.974 3.248-1.936 4.309-.844l-1.067.853c-.676-.868-2.179-.32-2.28.477-.166 1.303.408 2.515 1.572 3.09.988.487 2.51-.738 1.775-1.86zM305.028 305.067l1.066-.854 3.84 5.12-1.066.854zM309.081 301.867l-1.062.857 2.342 6.4 1.062-1.062-.64-1.28 1.92-1.715 1.28.64 1.076-.845-5.978-2.995zm.422 1.497l2.138 1.063-1.28 1.28-.858-2.343z"/>
      </g>
    </g>
  </g>
</svg>
