<svg xmlns="http://www.w3.org/2000/svg" height="24" width="24" viewBox="0 0 512 512">
  <path fill="#8d1b3d" d="M0 0h512v512H0z"/>
  <path d="M0 0v512h112.96l104.26-28.443-104.26-28.446 104.26-28.445-104.26-28.443 104.26-28.446-104.26-28.443 104.26-28.445-104.26-28.446L217.22 256l-104.26-28.443 104.26-28.446-104.26-28.445 104.26-28.443-104.26-28.446 104.26-28.443-104.26-28.445 104.26-28.446L112.96 0H0z" fill="#fff"/>
</svg>
