{
  "client_complete": {
    "options": {
      "title": "HiEd",
      "message": "Client is ready!"
    }
  },
  "scripts_updated": {
    "options": {
      "title": "HiEd",
      "message": "Scripts Updated"
    }
  },
  "styles_updated": {
    "options": {
      "title": "HiEd",
      "message": "Styles Updated"
    }
  },
  "templates_updated": {
    "options": {
      "title": "HiEd",
      "message": "Templates Updated"
    }
  }
}