<?xml version="1.0"?>
<svg version="1.1" xmlns="http://www.w3.org/2000/svg" xmlns:xlink="http://www.w3.org/1999/xlink" width="1792" height="1792">
    <desc iVinci="yes" version="4.6" gridStep="20" showGrid="no" snapToGrid="no" codePlatform="0"/>
    <g id="Layer1" name="Layer 1" opacity="1">
        <g id="Shape1">
            <desc shapeID="1" type="0" basicInfo-basicType="0" basicInfo-roundedRectRadius="12" basicInfo-polygonSides="6" basicInfo-starPoints="5" bounding="rect(-896,-896,1792,1792)" text="" font-familyName="" font-pixelSize="20" font-bold="0" font-underline="0" font-alignment="1" strokeStyle="0" markerStart="0" markerEnd="0" shadowEnabled="0" shadowOffsetX="0" shadowOffsetY="2" shadowBlur="4" shadowOpacity="160" blurEnabled="0" blurRadius="4" transform="matrix(1,0,0,1,896,896)" pers-center="0,0" pers-size="0,0" pers-start="0,0" pers-end="0,0" locked="0" mesh="" flag=""/>
            <path id="shapePath1" d="M896,160 C796,160 700.667,179.5 610,218.5 C519.333,257.5 441.167,309.833 375.5,375.5 C309.833,441.167 257.5,519.333 218.5,610 C179.5,700.667 160,796 160,896 C160,996 179.5,1091.33 218.5,1182 C257.5,1272.67 309.833,1350.83 375.5,1416.5 C441.167,1482.17 519.333,1534.5 610,1573.5 C700.667,1612.5 796,1632 896,1632 C996,1632 1091.33,1612.5 1182,1573.5 C1272.67,1534.5 1350.83,1482.17 1416.5,1416.5 C1482.17,1350.83 1534.5,1272.67 1573.5,1182 C1612.5,1091.33 1632,996 1632,896 C1632,796 1612.5,700.667 1573.5,610 C1534.5,519.333 1482.17,441.167 1416.5,375.5 C1350.83,309.833 1272.67,257.5 1182,218.5 C1091.33,179.5 996,160 896,160 M1792,896 C1792,1017.33 1768.33,1133.33 1721,1244 C1673.67,1354.67 1610,1450 1530,1530 C1450,1610 1354.67,1673.67 1244,1721 C1133.33,1768.33 1017.33,1792 896,1792 C774.667,1792 658.667,1768.33 548,1721 C437.333,1673.67 342,1610 262,1530 C182,1450 118.333,1354.67 71,1244 C23.6667,1133.33 0,1017.33 0,896 C0,774.667 23.6667,658.667 71,548 C118.333,437.333 182,342 262,262 C342,182 437.333,118.333 548,71 C658.667,23.6667 774.667,0 896,0 C1017.33,0 1133.33,23.6667 1244,71 C1354.67,118.333 1450,182 1530,262 C1610,342 1673.67,437.333 1721,548 C1768.33,658.667 1792,774.667 1792,896 Z" style="stroke:none;fill-rule:evenodd;fill:#ffffff;fill-opacity:1;"/>
        </g>
        <g id="Shape2">
            <desc shapeID="2" type="0" basicInfo-basicType="0" basicInfo-roundedRectRadius="12" basicInfo-polygonSides="6" basicInfo-starPoints="5" bounding="rect(-462.048,-640,924.095,1280)" text="" font-familyName="" font-pixelSize="20" font-bold="0" font-underline="0" font-alignment="1" strokeStyle="0" markerStart="0" markerEnd="0" shadowEnabled="0" shadowOffsetX="0" shadowOffsetY="2" shadowBlur="4" shadowOpacity="160" blurEnabled="0" blurRadius="4" transform="matrix(1,0,0,1,896,896)" pers-center="0,0" pers-size="0,0" pers-start="0,0" pers-end="0,0" locked="0" mesh="" flag=""/>
            <path id="shapePath2" d="M1042.05,1256 L1042.05,1496 C1042.05,1506.67 1038.05,1516 1030.05,1524 C1022.05,1532 1012.71,1536 1002.05,1536 L762.048,1536 C751.381,1536 742.048,1532 734.048,1524 C726.048,1516 722.048,1506.67 722.048,1496 L722.048,1256 C722.048,1245.33 726.048,1236 734.048,1228 C742.048,1220 751.381,1216 762.048,1216 L1002.05,1216 C1012.71,1216 1022.05,1220 1030.05,1228 C1038.05,1236 1042.05,1245.33 1042.05,1256 M1358.05,656 C1358.05,692 1352.88,725.667 1342.55,757 C1332.21,788.333 1320.55,813.833 1307.55,833.5 C1294.55,853.167 1276.21,873 1252.55,893 C1228.88,913 1209.71,927.5 1195.05,936.5 C1180.38,945.5 1160.05,957.333 1134.05,972 C1106.71,987.333 1083.88,1009 1065.55,1037 C1047.21,1065 1038.05,1087.33 1038.05,1104 C1038.05,1115.33 1034.05,1126.17 1026.05,1136.5 C1018.05,1146.83 1008.71,1152 998.048,1152 L758.048,1152 C748.048,1152 739.548,1145.83 732.548,1133.5 C725.548,1121.17 722.048,1108.67 722.048,1096 L722.048,1051 C722.048,995.667 743.714,943.5 787.048,894.5 C830.381,845.5 878.048,809.333 930.048,786 C969.381,768 997.381,749.333 1014.05,730 C1030.71,710.667 1039.05,685.333 1039.05,654 C1039.05,626 1023.55,601.333 992.548,580 C961.548,558.667 925.714,548 885.048,548 C841.714,548 805.714,557.667 777.048,577 C753.714,593.667 718.048,632 670.048,692 C661.381,702.667 651.048,708 639.048,708 C631.048,708 622.714,705.333 614.048,700 L450.048,575 C441.381,568.333 436.214,560 434.548,550 C432.881,540 434.714,530.667 440.048,522 C546.714,344.667 701.381,256 904.048,256 C957.381,256 1011.05,266.333 1065.05,287 C1119.05,307.667 1167.71,335.333 1211.05,370 C1254.38,404.667 1289.71,447.167 1317.05,497.5 C1344.38,547.833 1358.05,600.667 1358.05,656 Z" style="stroke:none;fill-rule:nonzero;fill:#ffffff;fill-opacity:1;"/>
        </g>
    </g>
</svg>
