<svg xmlns="http://www.w3.org/2000/svg" height="24" width="24" viewBox="0 0 512 512">
  <g fill-rule="evenodd" stroke-width="1pt">
    <path fill="#f31830" d="M0 0h511.993v255.992H0z"/>
    <path fill="#fff" d="M0 255.992h511.993v255.992H0z"/>
  </g>
</svg>
