<svg xmlns="http://www.w3.org/2000/svg" xmlns:xlink="http://www.w3.org/1999/xlink" height="24" width="24" viewBox="0 0 512 512">
  <path fill="#cc0001" d="M0 .05h512v512H0z"/>
  <path id="a" fill="#fff" d="M0 475.48h512v36.57H0z"/>
  <use height="100%" width="100%" transform="translate(0 -73.143)" xlink:href="#a"/>
  <use height="100%" width="100%" transform="translate(0 -146.286)" xlink:href="#a"/>
  <use height="100%" width="100%" transform="translate(0 -219.43)" xlink:href="#a"/>
  <use height="100%" width="100%" transform="translate(0 -292.57)" xlink:href="#a"/>
  <use height="100%" width="100%" transform="translate(0 -365.714)" xlink:href="#a"/>
  <use height="100%" width="100%" transform="translate(0 -438.857)" xlink:href="#a"/>
  <path fill="#010066" d="M0 .05h512v292.57H0z"/>
  <path d="M210.65 36.62c-60.76 0-110.08 49.155-110.08 109.716 0 60.56 49.32 109.714 110.08 109.714 21.954 0 42.408-6.424 59.586-17.475a97.658 97.658 0 0 1-31.916 5.34c-53.88 0-97.608-43.583-97.608-97.283s43.728-97.284 97.608-97.284c11.907 0 23.313 2.127 33.866 6.022-17.57-11.833-38.75-18.75-61.535-18.75z" fill="#fc0"/>
  <path d="M393.204 203.45l-46.37-24.192 13.71 49.513-31.013-41.417-9.675 50.41-9.516-50.44-31.145 41.326 13.866-49.473-46.444 24.053 34.502-38.705-52.547 2.018 48.306-20.272-48.24-20.417 52.54 2.176-34.38-38.81 46.37 24.194-13.71-49.514 31.013 41.42 9.675-50.413 9.516 50.44 31.146-41.324-13.867 49.472 46.444-24.054-34.502 38.706 52.547-2.018-48.306 20.273 48.24 20.418-52.54-2.176z" fill="#fc0"/>
</svg>
