<svg xmlns="http://www.w3.org/2000/svg" height="24" width="24" viewBox="0 0 512 512">
  <defs>
    <clipPath id="a">
      <path fill-opacity=".67" d="M61.722 4.181h170.82v170.82H61.722z"/>
    </clipPath>
  </defs>
  <g fill-rule="evenodd" clip-path="url(#a)" transform="translate(-185 -12.531) scale(2.9973)" stroke-width="1pt">
    <path fill="#4aadd6" d="M0 4.18h301.178V175H0z"/>
    <path d="M185.863 86.783c0 28.059-23.754 50.805-53.056 50.805-29.302 0-53.055-22.747-53.055-50.805 0-28.06 23.754-50.805 53.055-50.805 29.302 0 53.056 22.746 53.056 50.805z" fill="#ffde00"/>
  </g>
</svg>
