<svg xmlns="http://www.w3.org/2000/svg" height="24" width="24" viewBox="0 0 512 512">
  <g fill-rule="evenodd" stroke-width="1pt">
    <path fill="#0b7226" d="M-.001 0h170.665v512H-.001z"/>
    <path fill="#ff0" d="M170.664 0h170.665v512H170.664z"/>
    <path fill="#bc0000" d="M341.329 0h170.665v512H341.329z"/>
  </g>
  <path fill="#0b7226" d="M196.962 351.726l22.145-71.823-60.4-46.46h74.498l24.158-76.048 22.145 76.048h76.51l-60.4 46.46 22.145 73.935-60.4-46.474z"/>
</svg>
