<svg xmlns="http://www.w3.org/2000/svg" height="24" width="24" viewBox="0 0 512 512">
  <g fill-rule="evenodd">
    <path fill="#fff" d="M0 0h512v512H0z"/>
    <path fill="#001b9a" d="M0 173.38h512v170.67H0z"/>
    <path fill="#e70000" d="M0 .045h512v88H0zM0 426.67h512v85.333H0z"/>
  </g>
</svg>
