<svg xmlns="http://www.w3.org/2000/svg" height="24" width="24" viewBox="0 0 512 512">
  <g fill-rule="evenodd" stroke-width="1pt">
    <path fill="#c10000" d="M0 0h512v512H0z"/>
    <path fill="#fff" d="M0 0h218.308v174.96H0z"/>
    <g fill="#c10000">
      <path d="M89.832 27.285h34.795v121.873H89.832z"/>
      <path d="M168.171 70.82v34.795H46.298V70.82z"/>
    </g>
  </g>
</svg>
