<svg xmlns="http://www.w3.org/2000/svg" height="24" width="24" viewBox="0 0 512 512">
  <path style="width:0" fill="#fff" d="M0 0h512v512H0z"/>
  <g fill-rule="evenodd">
    <path d="M370.925 512.011L.047 1.071.009 511.744l370.916.267zM141.073-.003l370.878 510.94.038-510.673-370.916-.267z" fill="#e00000"/>
    <path d="M22.192.244h94.88l374.536 511.262H393.73L22.191.244z"/>
  </g>
</svg>
