<svg xmlns="http://www.w3.org/2000/svg" height="24" width="24" viewBox="0 0 512 512">
  <g fill-rule="evenodd" stroke-width="1pt">
    <path fill="red" d="M0 0h512v512H0z"/>
    <path fill="#00006b" d="M0-1h256v128H0z"/>
    <g fill="#fff">
      <path d="M132.524 116.574l-10.151-6.852-9.73 6.966 3.09-12.22-9.34-7.53 12.064-.7 3.959-11.622 4.362 11.788 11.787.347-9.366 7.987zM130.786 35.293l-8.122-5.219-7.975 5.18 2.214-9.732-7.15-6.365 9.494-.795 3.548-9.113 3.656 9.24 9.347.733-7.237 6.506zM94.892 64.541l-7.904-5.423-8.08 5.422 2.516-9.504-7.447-6.325 9.45-.451 3.479-9.331 3.332 9.225 9.592.559-7.393 6.153zM166.856 58.006l-7.585-4.892-7.38 4.952 2.124-9.024-6.799-5.777 8.896-.685 3.175-8.524 3.373 8.602 8.764.509-6.809 6zM145.644 79.378l-5.056-3.15-5.04 3.181 1.314-5.982-4.464-4.01 5.87-.547 2.283-5.659 2.313 5.644 5.873.512-4.44 4.035z"/>
    </g>
  </g>
</svg>
